Workflow, Wrangle(Intro), & Tibbles
…
```r
library(tidyverse)
as_tibble(cars)
```

```
## # A tibble: 50 x 2
##    speed  dist
##    <dbl> <dbl>
##  1     4     2
##  2     4    10
##  3     7     4
##  4     7    22
##  5     8    16
##  6     9    10
##  7    10    18
##  8    10    26
##  9    10    34
## 10    11    17
## # … with 40 more rows
```
…
```r
as_tibble(nycflights13::flights)
```

```
## # A tibble: 336,776 x 19
##     year month   day dep_time sched_dep_time dep_delay arr_time sched_arr_time
##    <int> <int> <int>    <int>          <int>     <dbl>    <int>          <int>
##  1  2013     1     1      517            515         2      830            819
##  2  2013     1     1      533            529         4      850            830
##  3  2013     1     1      542            540         2      923            850
##  4  2013     1     1      544            545        -1     1004           1022
##  5  2013     1     1      554            600        -6      812            837
##  6  2013     1     1      554            558        -4      740            728
##  7  2013     1     1      555            600        -5      913            854
##  8  2013     1     1      557            600        -3      709            723
##  9  2013     1     1      557            600        -3      838            846
## 10  2013     1     1      558            600        -2      753            745
## # … with 336,766 more rows, and 11 more variables: arr_delay <dbl>,
## #   carrier <chr>, flight <int>, tailnum <chr>, origin <chr>, dest <chr>,
## #   air_time <dbl>, distance <dbl>, hour <dbl>, minute <dbl>, time_hour <dttm>
```
…
